dump.vcd
$date
	Mon Jun 24 07:13:41 2024
$end
$version
	QuestaSim Version 2023.1
$end
$timescale
	1ns
$end

$scope module tb_top $end
$var parameter 32 ! PCLK_PRD $end
$var parameter 32 " PRST_PRD $end
$var reg 1 # pclk $end
$var reg 1 $ presetn $end

$scope module i_slave_dut $end
$var wire 1 % paddr [31] $end
$var wire 1 & paddr [30] $end
$var wire 1 ' paddr [29] $end
$var wire 1 ( paddr [28] $end
$var wire 1 ) paddr [27] $end
$var wire 1 * paddr [26] $end
$var wire 1 + paddr [25] $end
$var wire 1 , paddr [24] $end
$var wire 1 - paddr [23] $end
$var wire 1 . paddr [22] $end
$var wire 1 / paddr [21] $end
$var wire 1 0 paddr [20] $end
$var wire 1 1 paddr [19] $end
$var wire 1 2 paddr [18] $end
$var wire 1 3 paddr [17] $end
$var wire 1 4 paddr [16] $end
$var wire 1 5 paddr [15] $end
$var wire 1 6 paddr [14] $end
$var wire 1 7 paddr [13] $end
$var wire 1 8 paddr [12] $end
$var wire 1 9 paddr [11] $end
$var wire 1 : paddr [10] $end
$var wire 1 ; paddr [9] $end
$var wire 1 < paddr [8] $end
$var wire 1 = paddr [7] $end
$var wire 1 > paddr [6] $end
$var wire 1 ? paddr [5] $end
$var wire 1 @ paddr [4] $end
$var wire 1 A paddr [3] $end
$var wire 1 B paddr [2] $end
$var wire 1 C paddr [1] $end
$var wire 1 D paddr [0] $end
$var wire 1 E pclk $end
$var wire 1 F penable $end
$var wire 1 G presetn $end
$var wire 1 H psel $end
$var wire 1 I pwdata [31] $end
$var wire 1 J pwdata [30] $end
$var wire 1 K pwdata [29] $end
$var wire 1 L pwdata [28] $end
$var wire 1 M pwdata [27] $end
$var wire 1 N pwdata [26] $end
$var wire 1 O pwdata [25] $end
$var wire 1 P pwdata [24] $end
$var wire 1 Q pwdata [23] $end
$var wire 1 R pwdata [22] $end
$var wire 1 S pwdata [21] $end
$var wire 1 T pwdata [20] $end
$var wire 1 U pwdata [19] $end
$var wire 1 V pwdata [18] $end
$var wire 1 W pwdata [17] $end
$var wire 1 X pwdata [16] $end
$var wire 1 Y pwdata [15] $end
$var wire 1 Z pwdata [14] $end
$var wire 1 [ pwdata [13] $end
$var wire 1 \ pwdata [12] $end
$var wire 1 ] pwdata [11] $end
$var wire 1 ^ pwdata [10] $end
$var wire 1 _ pwdata [9] $end
$var wire 1 ` pwdata [8] $end
$var wire 1 a pwdata [7] $end
$var wire 1 b pwdata [6] $end
$var wire 1 c pwdata [5] $end
$var wire 1 d pwdata [4] $end
$var wire 1 e pwdata [3] $end
$var wire 1 f pwdata [2] $end
$var wire 1 g pwdata [1] $end
$var wire 1 h pwdata [0] $end
$var wire 1 i pwrite $end
$var reg 32 j prdata [31:0] $end
$var reg 1 k pready $end
$var reg 1 l pslverr $end
$var integer 32 m state $end
$upscope $end

$scope module intf $end
$var wire 1 n pclk $end
$var wire 1 o presetn $end
$var reg 32 p paddr [31:0] $end
$var reg 1 q penable $end
$var reg 32 r prdata [31:0] $end
$var reg 1 s pready $end
$var reg 1 t psel $end
$var reg 1 u pslverr $end
$var reg 32 v pwdata [31:0] $end
$var reg 1 w pwrite $end
$upscope $end

$scope task clk_gen $end
$upscope $end

$scope task rst_gen $end
$upscope $end
$upscope $end

$scope begin questa_uvm_pkg $end
$upscope $end

$scope begin uvm_pkg_sv_unit $end
$upscope $end

$scope begin apb_pkg $end
$upscope $end

$scope begin uvm_pkg $end
$var parameter 32 x UVM_ABSTRACT $end
$var parameter 32 y UVM_ALL_ON $end
$var parameter 32 z UVM_CHECK_FIELDS $end
$var parameter 32 { UVM_COMPARE $end
$var parameter 32 | UVM_COPY $end
$var parameter 32 } UVM_DEFAULT $end
$var parameter 32 ~ UVM_END_DATA_EXTRA $end
$var parameter 32 !! UVM_END_FUNCS $end
$var parameter 32 "! UVM_FLAGS $end
$var parameter 32 #! UVM_FLAGS_OFF $end
$var parameter 32 $! UVM_FLAGS_ON $end
$var parameter 32 %! UVM_HDL_MAX_WIDTH $end
$var parameter 32 &! UVM_LARGE_STRING $end
$var parameter 32 '! UVM_LINE_WIDTH $end
$var parameter 32 (! UVM_MACRO_EXTRAS $end
$var parameter 32 )! UVM_MACRO_NUMFLAGS $end
$var parameter 32 *! UVM_NOCOMPARE $end
$var parameter 32 +! UVM_NOCOPY $end
$var parameter 32 ,! UVM_NODEFPRINT $end
$var parameter 32 -! UVM_NOPACK $end
$var parameter 32 .! UVM_NOPRINT $end
$var parameter 32 /! UVM_NORECORD $end
$var parameter 32 0! UVM_NUM_LINES $end
$var parameter 32 1! UVM_PACK $end
$var parameter 32 2! UVM_PHYSICAL $end
$var parameter 32 3! UVM_PRINT $end
$var parameter 32 4! UVM_RADIX $end
$var parameter 32 5! UVM_READONLY $end
$var parameter 32 6! UVM_RECORD $end
$var parameter 32 7! UVM_SET $end
$var parameter 32 8! UVM_SETINT $end
$var parameter 32 9! UVM_SETOBJ $end
$var parameter 32 :! UVM_SETSTR $end
$var parameter 32 ;! UVM_SMALL_STRING $end
$var parameter 32 <! UVM_START_FUNCS $end
$var parameter 32 =! UVM_STDOUT $end
$var parameter 32 >! UVM_STREAMBITS $end
$var parameter 32 ?! UVM_STR_CRC_POLYNOMIAL $end
$var parameter 32 @! UVM_UNPACK $end
$var integer 32 A! UVM_UNBOUNDED_CONNECTIONS $end
$var integer 32 B! uvm_global_random_seed $end
$var reg 1 C! uvm_start_uvm_declarations $end

$scope function global_stop_request $end
$upscope $end

$scope function m__uvm_report_dpi $end
$var integer 32 D! line $end
$var integer 32 E! severity $end
$var integer 32 F! verbosity $end
$upscope $end

$scope function m_uvm_string_queue_join $end
$upscope $end

$scope function set_config_int $end
$var reg 4096 G! value [4095:0] $end
$upscope $end

$scope function set_config_object $end
$var reg 1 H! clone $end
$upscope $end

$scope function set_config_string $end
$upscope $end

$scope function set_global_stop_timeout $end
$var time 64 I! timeout $end
$upscope $end

$scope function set_global_timeout $end
$var time 64 J! timeout $end
$var reg 1 K! overridable $end
$upscope $end

$scope function uvm_bits_to_string $end
$var reg 115200 L! str [115199:0] $end
$upscope $end

$scope function uvm_bitstream_to_string $end
$var reg 4096 M! value [4095:0] $end
$var integer 32 N! size $end
$var integer 32 O! radix $end
$upscope $end

$scope function uvm_create_random_seed $end
$var integer 32 P! uvm_create_random_seed $end
$upscope $end

$scope function uvm_dpi_get_next_arg $end
$var integer 32 Q! init $end
$upscope $end

$scope function uvm_dpi_get_next_arg_c $end
$var integer 32 R! init $end
$upscope $end

$scope function uvm_dpi_get_tool_name $end
$upscope $end

$scope function uvm_dpi_get_tool_name_c $end
$upscope $end

$scope function uvm_dpi_get_tool_version $end
$upscope $end

$scope function uvm_dpi_get_tool_version_c $end
$upscope $end

$scope function uvm_dpi_regcomp $end
$upscope $end

$scope function uvm_dpi_regexec $end
$var integer 32 S! uvm_dpi_regexec $end
$upscope $end

$scope function uvm_dpi_regfree $end
$upscope $end

$scope function uvm_dump_re_cache $end
$upscope $end

$scope function uvm_get_array_index_int $end
$var integer 32 T! i $end
$var integer 32 U! uvm_get_array_index_int $end
$var reg 1 V! is_wildcard $end
$upscope $end

$scope function uvm_get_array_index_string $end
$var integer 32 W! i $end
$var reg 1 X! is_wildcard $end
$upscope $end

$scope function uvm_get_report_object $end
$upscope $end

$scope function uvm_glob_to_re $end
$upscope $end

$scope function uvm_has_wildcard $end
$upscope $end

$scope function uvm_hdl_check_path $end
$var integer 32 Y! uvm_hdl_check_path $end
$upscope $end

$scope function uvm_hdl_concat2string $end
$upscope $end

$scope function uvm_hdl_deposit $end
$var reg 1024 Z! value [1023:0] $end
$var integer 32 [! uvm_hdl_deposit $end
$upscope $end

$scope function uvm_hdl_force $end
$var reg 1024 \! value [1023:0] $end
$var integer 32 ]! uvm_hdl_force $end
$upscope $end

$scope function uvm_hdl_read $end
$var reg 1024 ^! value [1023:0] $end
$var integer 32 _! uvm_hdl_read $end
$upscope $end

$scope function uvm_hdl_release $end
$var integer 32 `! uvm_hdl_release $end
$upscope $end

$scope function uvm_hdl_release_and_read $end
$var reg 1024 a! value [1023:0] $end
$var integer 32 b! uvm_hdl_release_and_read $end
$upscope $end

$scope function uvm_instance_scope $end
$var integer 32 c! pos $end
$var integer 8 d! c $end
$upscope $end

$scope function uvm_integral_to_string $end
$var reg 64 e! value [63:0] $end
$var integer 32 f! size $end
$var integer 32 g! radix $end
$upscope $end

$scope function uvm_is_array $end
$var reg 1 h! uvm_is_array $end
$upscope $end

$scope function uvm_is_match $end
$var reg 1 i! uvm_is_match $end
$upscope $end

$scope function uvm_leaf_scope $end
$var integer 32 j! bmatches $end
$var integer 32 k! pos $end
$var integer 8 l! bracket_match $end
$var integer 8 m! scope_separator $end
$upscope $end

$scope function uvm_object_value_str $end
$upscope $end

$scope function uvm_oneway_hash $end
$var integer 32 n! seed $end
$var integer 32 o! uvm_oneway_hash $end
$var reg 32 p! crc1 [31:0] $end
$var reg 8 q! current_byte [7:0] $end
$var reg 1 r! msb $end
$upscope $end

$scope function uvm_process_report_message $end
$upscope $end

$scope function uvm_radix_to_string $end
$var integer 32 s! radix $end
$upscope $end

$scope function uvm_re_match $end
$var integer 32 t! uvm_re_match $end
$upscope $end

$scope function uvm_report $end
$var integer 32 u! line $end
$var integer 32 v! verbosity $end
$var reg 2 w! severity [1:0] $end
$var reg 1 x! report_enabled_checked $end
$upscope $end

$scope function uvm_report_enabled $end
$var integer 32 y! uvm_report_enabled $end
$var integer 32 z! verbosity $end
$var reg 2 {! severity [1:0] $end
$upscope $end

$scope function uvm_report_error $end
$var integer 32 |! line $end
$var integer 32 }! verbosity $end
$var reg 1 ~! report_enabled_checked $end
$upscope $end

$scope function uvm_report_fatal $end
$var integer 32 !" line $end
$var integer 32 "" verbosity $end
$var reg 1 #" report_enabled_checked $end
$upscope $end

$scope function uvm_report_info $end
$var integer 32 $" line $end
$var integer 32 %" verbosity $end
$var reg 1 &" report_enabled_checked $end
$upscope $end

$scope function uvm_report_warning $end
$var integer 32 '" line $end
$var integer 32 (" verbosity $end
$var reg 1 )" report_enabled_checked $end
$upscope $end

$scope function uvm_revision_string $end
$upscope $end

$scope function uvm_split_string $end
$upscope $end

$scope function uvm_string_to_action $end
$upscope $end

$scope function uvm_string_to_bits $end
$var reg 115200 *" uvm_string_to_bits [115199:0] $end
$upscope $end

$scope function uvm_string_to_severity $end
$var reg 2 +" sev [1:0] $end
$var reg 1 ," uvm_string_to_severity $end
$upscope $end

$scope function uvm_vector_to_string $end
$var reg 4096 -" value [4095:0] $end
$var integer 32 ." size $end
$var integer 32 /" radix $end
$upscope $end

$scope task run_test $end
$upscope $end

$scope task uvm_hdl_force_time $end
$var reg 1024 0" value [1023:0] $end
$var time 64 1" force_time $end
$upscope $end

$scope task uvm_wait_for_nba_region $end
$var integer 32 2" nba $end
$var integer 32 3" next_nba $end
$upscope $end
$upscope $end

$scope begin std $end
$upscope $end
$enddefinitions $end
#0
$dumpvars
xh
xg
xf
xe
xd
xc
xb
xa
x`
x_
x^
x]
x\
x[
xZ
xY
xX
xW
xV
xU
xT
xS
xR
xQ
xP
xO
xN
xM
xL
xK
xJ
xI
xD
xC
xB
xA
x@
x?
x>
x=
x<
x;
x:
x9
x8
x7
x6
x5
x4
x3
x2
x1
x0
x/
x.
x-
x,
x+
x*
x)
x(
x'
x&
x%
xi
xF
xH
0E
1G
1o
0n
b101 !
b100 "
0#
1$
b100000000000000 x
b101010101 y
b100000000000000011 z
b100 {
b1 |
b10101010101 }
b100000000000000100 ~
b100000000000001000 !!
b100000000000000001 "!
b0 #!
b101010101 $!
b10000000000 %!
b11100000111111111 &!
b1111000 '!
b100000000000000000 (!
b10001 )!
b1000 *!
b10 +!
b10000000000000000 ,!
b1000000000 -!
b100000 .!
b10000000 /!
b1111000 0!
b100000000 1!
b10000000000000 2!
b10000 3!
b1111000000000000000000000000 4!
b1000000000000000 5!
b1000000 6!
b100000000000000110 7!
b100000000000000110 8!
b100000000000000111 9!
b100000000000001000 :!
b1110111111 ;!
b100000000000000101 <!
b1 =!
b1000000000000 >!
b100110000010001110110110110 ?!
b100000000000000010 @!
b11111111111111111111111111111111 A!
b1100101110011111100110100100110 B!
1C!
b0 D!
b0 E!
b0 F!
bx G!
0H!
bx I!
bx J!
0K!
bx L!
bx M!
b0 N!
b0 O!
b11110100111000001111100011000 P!
b0 Q!
b0 R!
b0 S!
b0 T!
b0 U!
0V!
b0 W!
0X!
b0 Y!
bx Z!
b0 [!
bx \!
b0 ]!
bx 0"
bx 1"
bx ^!
b0 _!
b0 `!
bx a!
b0 b!
b111 c!
b101110 d!
b1 e!
b100000 f!
b10000000000000000000000000 g!
0h!
0i!
b11111111111111111111111111111111 j!
b11010 k!
b0 l!
b101110 m!
b1100101110011111100110100100110 n!
b10011010000100110011000011100011 o!
b1000010100111001011110011001011 p!
b1101101 q!
1r!
b0 s!
b0 t!
b0 u!
b0 v!
b0 w!
0x!
b0 y!
b111110100 z!
b0 {!
b0 |!
b0 }!
0~!
b0 !"
b0 ""
0#"
b1100 $"
b1100100 %"
1&"
b0 '"
b0 ("
0)"
bx *"
b0 +"
0,"
bx -"
b0 ."
b0 /"
b100011 2"
b100011 3"
bx j
xk
xl
b0 m
bx p
xq
bx r
xs
xt
xu
bx v
xw
$end
#2
1#
1n
1E
b0 j
0k
0l
b1 m
0t
0q
0u
0s
b0 r
0H
0F
#4
0$
0#
0o
0G
0n
0E
#6
1#
1n
1E
b100100 3"
b0 m
b100100 2"
1w
b11110 v
b101 p
1i
1D
0C
1B
0A
0@
0?
0>
0=
0<
0;
0:
09
08
07
06
05
04
03
02
01
00
0/
0.
0-
0,
0+
0*
0)
0(
0'
0&
0%
0h
1g
1f
1e
1d
0c
0b
0a
0`
0_
0^
0]
0\
0[
0Z
0Y
0X
0W
0V
0U
0T
0S
0R
0Q
0P
0O
0N
0M
0L
0K
0J
0I
#8
1$
0#
1o
1G
0n
0E
#10
1#
1n
1E
b11111111111111111111111111111111 j!
b110 k!
b0 e!
b111000000000000000000000000 g!
b1 f!
b1 m
1t
1H
#12
0#
0n
0E
#14
1#
1n
1E
b11111111111111111111111111111111 j!
b110 k!
b10 e!
b100000 f!
b10000000000000000000000000 g!
b11111111111111111111111111111111 j!
b110 k!
b10 e!
b10000000000000000000000000 g!
b100000 f!
b10011010000100110011000011100100 P!
b10 m
1q
1F
#16
0#
0n
0E
#18
1#
1n
1E
b100101 3"
b11111111111111111111111111111111 j!
b110 k!
b0 e!
b111000000000000000000000000 g!
b1 f!
b11 m
1k
b100101 2"
1s
b11111111111111111111111111111111 j!
b110 k!
b10 e!
b100000 f!
b10000000000000000000000000 g!
0w
0i
#20
0#
0n
0E
#22
1#
1n
1E
b11111111111111111111111111111111 j!
b110 k!
b1 e!
b111000000000000000000000000 g!
b1 f!
b1 m
0k
0q
0s
0F
#24
0#
0n
0E
#26
1#
1n
1E
b11111111111111111111111111111111 j!
b110 k!
b10 e!
b100000 f!
b10000000000000000000000000 g!
b11111111111111111111111111111111 j!
b110 k!
b10 e!
b10000000000000000000000000 g!
b100000 f!
b11001001011011001001000111000100 o!
b1100001001110110110001110011100 p!
b1110001 q!
0r!
b11001001011011001001000111000100 P!
b10010110110000010011001100110110 o!
b11101111100110010000111011001111 p!
b1101101 q!
1r!
b10010110110000010011001100110110 P!
b10 m
1q
1F
#28
0#
0n
0E
#30
1#
1n
1E
b100110 3"
b11111111111111111111111111111111 j!
b110 k!
b0 e!
b111000000000000000000000000 g!
b1 f!
b11110 j
b11 m
1k
b100110 2"
1s
b11110 r
b11111111111111111111111111111111 j!
b110 k!
b10 e!
b100000 f!
b10000000000000000000000000 g!
1w
b10101101000101111000110111000100 v
b1 p
1i
0B
0g
0e
0d
1b
1a
1`
1^
1]
1Y
1X
1W
1V
1T
1P
1N
1M
1K
1I
#32
0#
0n
0E
#34
1#
1n
1E
b11111111111111111111111111111111 j!
b110 k!
b0 e!
b111000000000000000000000000 g!
b1 f!
b1 m
0k
0q
0s
0F
#36
0#
0n
0E
#38
1#
1n
1E
b11111111111111111111111111111111 j!
b110 k!
b10 e!
b100000 f!
b10000000000000000000000000 g!
b11111111111111111111111111111111 j!
b110 k!
b10 e!
b10000000000000000000000000 g!
b100000 f!
b10010110110000010011001100110111 P!
b10 m
1q
1F
#40
0#
0n
0E
#42
1#
1n
1E
b100111 3"
b11111111111111111111111111111111 j!
b110 k!
b0 e!
b111000000000000000000000000 g!
b1 f!
b11 m
1k
b100111 2"
1s
b11111111111111111111111111111111 j!
b110 k!
b10 e!
b100000 f!
b10000000000000000000000000 g!
b11101011110010101010110100111001 v
b10 p
0D
1C
1h
0f
1e
1d
1c
0b
0a
1[
0X
0V
1U
0T
1R
1Q
1O
0N
1J
#44
0#
0n
0E
#46
1#
1n
1E
b11111111111111111111111111111111 j!
b110 k!
b111000000000000000000000000 g!
b0 e!
b1 f!
b1 m
0k
0q
0s
0F
#48
0#
0n
0E
#50
1#
1n
1E
b11111111111111111111111111111111 j!
b110 k!
b10 e!
b100000 f!
b10000000000000000000000000 g!
b11111111111111111111111111111111 j!
b110 k!
b10000000000000000000000000 g!
b10 e!
b100000 f!
b10010110110000010011001100111001 P!
b10 m
1q
1F
#52
0#
0n
0E
#54
1#
1n
1E
b101000 3"
b11111111111111111111111111111111 j!
b110 k!
b111000000000000000000000000 g!
b0 e!
b1 f!
b11 m
1k
b101000 2"
1s
b11111111111111111111111111111111 j!
b110 k!
b10 e!
b100000 f!
b10000000000000000000000000 g!
b100111101001000111110100111010 v
b11 p
1D
0h
1g
1\
1Z
0Y
0W
1V
0U
1S
0R
1N
0M
0J
0I
#56
0#
0n
0E
#58
1#
1n
1E
b11111111111111111111111111111111 j!
b110 k!
b0 e!
b111000000000000000000000000 g!
b1 f!
b1 m
0k
0q
0s
0F
#60
0#
0n
0E
#62
1#
1n
1E
b11111111111111111111111111111111 j!
b110 k!
b10 e!
b100000 f!
b10000000000000000000000000 g!
b11111111111111111111111111111111 j!
b110 k!
b10 e!
b10000000000000000000000000 g!
b100000 f!
b10010110110000010011001100111100 P!
b10 m
1q
1F
#64
0#
0n
0E
#66
1#
1n
1E
b101001 3"
b11111111111111111111111111111111 j!
b110 k!
b0 e!
b111000000000000000000000000 g!
b1 f!
b11 m
1k
b101001 2"
1s
b11111111111111111111111111111111 j!
b110 k!
b10 e!
b100000 f!
b10000000000000000000000000 g!
b1001001100101100100101001111101 v
b100 p
0D
0C
1B
1h
0g
1f
1b
0`
1_
0^
0\
0[
1W
1T
0S
0O
0N
1M
0K
1J
#68
0#
0n
0E
#70
1#
1n
1E
b11111111111111111111111111111111 j!
b110 k!
b0 e!
b111000000000000000000000000 g!
b1 f!
b1 m
0k
0q
0s
0F
#72
0#
0n
0E
#74
1#
1n
1E
b11111111111111111111111111111111 j!
b110 k!
b10 e!
b100000 f!
b10000000000000000000000000 g!
b11111111111111111111111111111111 j!
b110 k!
b10 e!
b10000000000000000000000000 g!
b100000 f!
b10010110110000010011001101000000 P!
b10 m
1q
1F
#76
0#
0n
0E
#78
1#
1n
1E
b101010 3"
b11111111111111111111111111111111 j!
b110 k!
b0 e!
b111000000000000000000000000 g!
b1 f!
b11 m
1k
b101010 2"
1s
b11111111111111111111111111111111 j!
b110 k!
b10 e!
b100000 f!
b10000000000000000000000000 g!
b10101111000100111011101011111111 v
b101 p
1D
1g
1a
1\
1[
0Z
1Y
1X
0V
0Q
1O
1N
1K
0J
1I
#80
0#
0n
0E
#82
1#
1n
1E
b11111111111111111111111111111111 j!
b110 k!
b0 e!
b111000000000000000000000000 g!
b1 f!
b1 m
0k
0q
0s
0F
#84
0#
0n
0E
#86
1#
1n
1E
b11111111111111111111111111111111 j!
b110 k!
b10 e!
b100000 f!
b10000000000000000000000000 g!
b11111111111111111111111111111111 j!
b110 k!
b10 e!
b10000000000000000000000000 g!
b100000 f!
b10010110110000010011001101000101 P!
b10 m
1q
1F
#88
0#
0n
0E
#90
1#
1n
1E
b101011 3"
b11111111111111111111111111111111 j!
b110 k!
b0 e!
b111000000000000000000000000 g!
b1 f!
b11 m
1k
b101011 2"
1s
b11111111111111111111111111111111 j!
b110 k!
b10 e!
b100000 f!
b10000000000000000000000000 g!
b11000101101101000010100110011 v
b110 p
0D
1C
0f
0e
0b
0a
1`
0_
1^
0]
0\
0[
0X
1V
1S
1Q
0P
0O
0N
1L
0K
0I
#92
0#
0n
0E
#94
1#
1n
1E
b11111111111111111111111111111111 j!
b110 k!
b0 e!
b111000000000000000000000000 g!
b1 f!
b1 m
0k
0q
0s
0F
#96
0#
0n
0E
#98
1#
1n
1E
b11111111111111111111111111111111 j!
b110 k!
b10 e!
b100000 f!
b10000000000000000000000000 g!
b11111111111111111111111111111111 j!
b110 k!
b10 e!
b10000000000000000000000000 g!
b100000 f!
b10010110110000010011001101001011 P!
b10 m
1q
1F
#100
0#
0n
0E
#102
1#
1n
1E
b101100 3"
b11111111111111111111111111111111 j!
b110 k!
b0 e!
b111000000000000000000000000 g!
b1 f!
b11 m
1k
b101100 2"
1s
b11111111111111111111111111111111 j!
b110 k!
b10 e!
b100000 f!
b10000000000000000000000000 g!
b10110011001101100101111111001111 v
b111 p
1D
1f
1e
0d
0c
1b
1a
1_
1]
1\
1Z
0Y
0Q
1P
1O
0M
1K
1I
#104
0#
0n
0E
#106
1#
1n
1E
b11111111111111111111111111111111 j!
b110 k!
b0 e!
b111000000000000000000000000 g!
b1 f!
b1 m
0k
0q
0s
0F
#108
0#
0n
0E
#110
1#
1n
1E
b11111111111111111111111111111111 j!
b110 k!
b10 e!
b100000 f!
b10000000000000000000000000 g!
b11111111111111111111111111111111 j!
b110 k!
b10 e!
b10000000000000000000000000 g!
b100000 f!
b10010110110000010011001101010010 P!
b10 m
1q
1F
#112
0#
0n
0E
#114
1#
1n
1E
b101101 3"
b11111111111111111111111111111111 j!
b110 k!
b0 e!
b111000000000000000000000000 g!
b1 f!
b11 m
1k
b101101 2"
1s
b11111111111111111111111111111111 j!
b110 k!
b10 e!
b100000 f!
b10000000000000000000000000 g!
b11110111011110100101010100100 v
b1000 p
0D
0C
0B
1A
0h
0g
0e
1c
0b
0`
0^
0\
1X
1U
0T
1R
1Q
0P
1N
1M
0K
0I
#116
0#
0n
0E
#118
1#
1n
1E
b11111111111111111111111111111111 j!
b110 k!
b0 e!
b111000000000000000000000000 g!
b1 f!
b1 m
0k
0q
0s
0F
#120
0#
0n
0E
#122
1#
1n
1E
b11111111111111111111111111111111 j!
b110 k!
b10 e!
b100000 f!
b10000000000000000000000000 g!
b11111111111111111111111111111111 j!
b110 k!
b10 e!
b10000000000000000000000000 g!
b100000 f!
b10010110110000010011001101011010 P!
b10 m
1q
1F
#124
0#
0n
0E
#126
1#
1n
1E
b101110 3"
b11111111111111111111111111111111 j!
b110 k!
b0 e!
b111000000000000000000000000 g!
b1 f!
b11 m
1k
b101110 2"
1s
b11111111111111111111111111111111 j!
b110 k!
b10 e!
b100000 f!
b10000000000000000000000000 g!
b111010101101101010010000000100 v
b1001 p
1D
0c
0a
0_
1^
0]
1[
0Z
1Y
0X
0U
1T
0R
0N
1K
#128
0#
0n
0E
#130
1#
1n
1E
b11111111111111111111111111111111 j!
b110 k!
b0 e!
b111000000000000000000000000 g!
b1 f!
b1 m
0k
0q
0s
0F
#132
0#
0n
0E
#134
1#
1n
1E
b11111111111111111111111111111111 j!
b110 k!
b10 e!
b100000 f!
b10000000000000000000000000 g!
b11111111111111111111111111111111 j!
b110 k!
b10 e!
b10000000000000000000000000 g!
b100000 f!
b10010110110000010011001101100011 P!
b10 m
1q
1F
#136
0#
0n
0E
#138
1#
1n
1E
b101111 3"
b11111111111111111111111111111111 j!
b110 k!
b0 e!
b111000000000000000000000000 g!
b1 f!
b11 m
1k
b101111 2"
1s
b11111111111111111111111111111111 j!
b110 k!
b10 e!
b100000 f!
b10000000000000000000000000 g!
b1111011000000101001100011110100 v
b1010 p
0D
1C
1d
1c
1b
1a
0^
1]
1\
0[
0V
0T
0S
0Q
1P
1J
#140
0#
0n
0E
#142
1#
1n
1E
b11111111111111111111111111111111 j!
b110 k!
b0 e!
b111000000000000000000000000 g!
b1 f!
b1 m
0k
0q
0s
0F
#144
0#
0n
0E
#146
1#
1n
1E
b11111111111111111111111111111111 j!
b110 k!
b10 e!
b100000 f!
b10000000000000000000000000 g!
b11111111111111111111111111111111 j!
b110 k!
b10 e!
b10000000000000000000000000 g!
b100000 f!
b1101100111100010001011100110011 o!
b11110010101101011101111011111000 p!
b1110001 q!
0r!
b1101100111100010001011100110011 P!
b10110101011100011000011100000110 o!
b11111010001100101111010110000 p!
b1101101 q!
0r!
b10110101011100011000011100000110 P!
b10 m
1q
1F
#148
0#
0n
0E
#150
1#
1n
1E
b110000 3"
b11111111111111111111111111111111 j!
b110 k!
b0 e!
b111000000000000000000000000 g!
b1 f!
b11 m
1k
b110000 2"
1s
b11111111111111111111111111111111 j!
b110 k!
b10 e!
b100000 f!
b10000000000000000000000000 g!
0w
b0 v
b1 p
0i
1D
0C
0A
0f
0d
0c
0b
0a
0]
0\
0Y
0W
0P
0O
0M
0L
0K
0J
#152
0#
0n
0E
#154
1#
1n
1E
b11111111111111111111111111111111 j!
b110 k!
b1 e!
b111000000000000000000000000 g!
b1 f!
b1 m
0k
0q
0s
0F
#156
0#
0n
0E
#158
1#
1n
1E
b11111111111111111111111111111111 j!
b110 k!
b10 e!
b100000 f!
b10000000000000000000000000 g!
b11111111111111111111111111111111 j!
b110 k!
b10 e!
b10000000000000000000000000 g!
b100000 f!
b10110101011100011000011100000111 P!
b10 m
1q
1F
#160
0#
0n
0E
#162
1#
1n
1E
b110001 3"
b11111111111111111111111111111111 j!
b110 k!
b0 e!
b111000000000000000000000000 g!
b1 f!
b10101101000101111000110111000100 j
b11 m
1k
b110001 2"
1s
b10101101000101111000110111000100 r
b11111111111111111111111111111111 j!
b110 k!
b10 e!
b100000 f!
b10000000000000000000000000 g!
b10 p
0D
1C
#164
0#
0n
0E
#166
1#
1n
1E
b11111111111111111111111111111111 j!
b110 k!
b1 e!
b111000000000000000000000000 g!
b1 f!
b1 m
0k
0q
0s
0F
#168
0#
0n
0E
#170
1#
1n
1E
b11111111111111111111111111111111 j!
b110 k!
b10 e!
b100000 f!
b10000000000000000000000000 g!
b11111111111111111111111111111111 j!
b110 k!
b10000000000000000000000000 g!
b10 e!
b100000 f!
b10110101011100011000011100001001 P!
b10 m
1q
1F
#172
0#
0n
0E
#174
1#
1n
1E
b110010 3"
b11111111111111111111111111111111 j!
b110 k!
b0 e!
b111000000000000000000000000 g!
b1 f!
b11101011110010101010110100111001 j
b11 m
1k
b110010 2"
1s
b11101011110010101010110100111001 r
b11111111111111111111111111111111 j!
b110 k!
b10 e!
b100000 f!
b10000000000000000000000000 g!
b11 p
1D
#176
0#
0n
0E
#178
1#
1n
1E
b11111111111111111111111111111111 j!
b110 k!
b1 e!
b111000000000000000000000000 g!
b1 f!
b1 m
0k
0q
0s
0F
#180
0#
0n
0E
#182
1#
1n
1E
b11111111111111111111111111111111 j!
b110 k!
b10 e!
b100000 f!
b10000000000000000000000000 g!
b11111111111111111111111111111111 j!
b110 k!
b10 e!
b10000000000000000000000000 g!
b100000 f!
b10110101011100011000011100001100 P!
b10 m
1q
1F
#184
0#
0n
0E
#186
1#
1n
1E
b110011 3"
b11111111111111111111111111111111 j!
b110 k!
b0 e!
b111000000000000000000000000 g!
b1 f!
b100111101001000111110100111010 j
b11 m
1k
b110011 2"
1s
b100111101001000111110100111010 r
b11111111111111111111111111111111 j!
b110 k!
b10 e!
b100000 f!
b10000000000000000000000000 g!
b100 p
0D
0C
1B
#188
0#
0n
0E
#190
1#
1n
1E
b11111111111111111111111111111111 j!
b110 k!
b1 e!
b111000000000000000000000000 g!
b1 f!
b1 m
0k
0q
0s
0F
#192
0#
0n
0E
#194
1#
1n
1E
b11111111111111111111111111111111 j!
b110 k!
b10 e!
b100000 f!
b10000000000000000000000000 g!
b11111111111111111111111111111111 j!
b110 k!
b10 e!
b10000000000000000000000000 g!
b100000 f!
b10110101011100011000011100010000 P!
b10 m
1q
1F
#196
0#
0n
0E
#198
1#
1n
1E
b110100 3"
b11111111111111111111111111111111 j!
b110 k!
b0 e!
b111000000000000000000000000 g!
b1 f!
b1001001100101100100101001111101 j
b11 m
1k
b110100 2"
1s
b1001001100101100100101001111101 r
b11111111111111111111111111111111 j!
b110 k!
b10 e!
b100000 f!
b10000000000000000000000000 g!
b101 p
1D
#200
0#
0n
0E
#202
1#
1n
1E
b11111111111111111111111111111111 j!
b110 k!
b1 e!
b111000000000000000000000000 g!
b1 f!
b1 m
0k
0q
0s
0F
#204
0#
0n
0E
#206
1#
1n
1E
b11111111111111111111111111111111 j!
b110 k!
b10 e!
b100000 f!
b10000000000000000000000000 g!
b11111111111111111111111111111111 j!
b110 k!
b10 e!
b10000000000000000000000000 g!
b100000 f!
b10110101011100011000011100010101 P!
b10 m
1q
1F
#208
0#
0n
0E
#210
1#
1n
1E
b110101 3"
b11111111111111111111111111111111 j!
b110 k!
b0 e!
b111000000000000000000000000 g!
b1 f!
b10101111000100111011101011111111 j
b11 m
1k
b110101 2"
1s
b10101111000100111011101011111111 r
b11111111111111111111111111111111 j!
b110 k!
b10 e!
b100000 f!
b10000000000000000000000000 g!
b110 p
0D
1C
#212
0#
0n
0E
#214
1#
1n
1E
b11111111111111111111111111111111 j!
b110 k!
b1 e!
b111000000000000000000000000 g!
b1 f!
b1 m
0k
0q
0s
0F
#216
0#
0n
0E
